Going Deeper with R
…
Importing Excel Files

Importing Excel Files

german_speakers <- read_excel(path = "data-raw/german-and-french-speakers.xlsx",
                              sheet = "German speakers") |> 
  clean_names()

german_speakers

# A tibble: 51 × 4
   state    number_of_german_spe…¹ number_of_german_spe…² number_of_german_spe…³
   <chr>    <chr>                  <chr>                  <chr>                 
 1 Alabama  426                    395                    711                   
 2 Alaska   331                    201                    131                   
 3 Arizona  636                    858                    136                   
 4 Arkansas -                      635                    557                   
 5 Califor… 440                    318                    854                   
 6 Colorado 251                    498                    768                   
 7 Connect… 187                    334                    586                   
 8 Delaware -                      998                    453                   
 9 Distric… 799                    745                    180                   
10 Florida  399                    924                    958                   
# ℹ 41 more rows
# ℹ abbreviated names: ¹​number_of_german_speakers_2017,
#   ²​number_of_german_speakers_2018, ³​number_of_german_speakers_2019
…
Untidy Data

german_speakers_numeric <- read_excel(path = "data-raw/german-and-french-speakers.xlsx",
                                      sheet = "German speakers",
                                      na = "-") |>
  clean_names()

german_speakers_numeric

# A tibble: 51 × 4
   state    number_of_german_spe…¹ number_of_german_spe…² number_of_german_spe…³
   <chr>                     <dbl>                  <dbl>                  <dbl>
 1 Alabama                     426                    395                    711
 2 Alaska                      331                    201                    131
 3 Arizona                     636                    858                    136
 4 Arkansas                     NA                    635                    557
 5 Califor…                    440                    318                    854
 6 Colorado                    251                    498                    768
 7 Connect…                    187                    334                    586
 8 Delaware                     NA                    998                    453
 9 Distric…                    799                    745                    180
10 Florida                     399                    924                    958
# ℹ 41 more rows
# ℹ abbreviated names: ¹​number_of_german_speakers_2017,
#   ²​number_of_german_speakers_2018, ³​number_of_german_speakers_2019

Untidy Data

german_speakers_numeric |>
  mutate(total = number_of_german_speakers_2017 + 
           number_of_german_speakers_2018 + 
           number_of_german_speakers_2019) |>
  select(state, total)

# A tibble: 51 × 2
   state                total
   <chr>                <dbl>
 1 Alabama               1532
 2 Alaska                 663
 3 Arizona               1630
 4 Arkansas                NA
 5 California            1612
 6 Colorado              1517
 7 Connecticut           1107
 8 Delaware                NA
 9 District of Columbia  1724
10 Florida               2281
# ℹ 41 more rows

But what if we have 10 or 20 years of data? Are we going to write out a all of those years individually?

Tidy Data

# A tibble: 153 × 3
   state    year                           number
   <chr>    <chr>                           <dbl>
 1 Alabama  number_of_german_speakers_2017    426
 2 Alabama  number_of_german_speakers_2018    395
 3 Alabama  number_of_german_speakers_2019    711
 4 Alaska   number_of_german_speakers_2017    331
 5 Alaska   number_of_german_speakers_2018    201
 6 Alaska   number_of_german_speakers_2019    131
 7 Arizona  number_of_german_speakers_2017    636
 8 Arizona  number_of_german_speakers_2018    858
 9 Arizona  number_of_german_speakers_2019    136
10 Arkansas number_of_german_speakers_2017     NA
# ℹ 143 more rows

Tidy Data

german_speakers_tidy |>
  group_by(state) |>
  summarize(total = sum(number, na.rm = TRUE))

# A tibble: 51 × 2
   state                total
   <chr>                <dbl>
 1 Alabama               1532
 2 Alaska                 663
 3 Arizona               1630
 4 Arkansas              1192
 5 California            1612
 6 Colorado              1517
 7 Connecticut           1107
 8 Delaware              1451
 9 District of Columbia  1724
10 Florida               2281
# ℹ 41 more rows
…
Every cell is a single value.

My Turn

Let’s take a look at the math proficiency data and see which principles of tidy data it violates

Your Turn

Take a look at your data and see which principles of tidy data it violates

Tidy Data Rule #1: Every Column is a Variable

german_speakers

# A tibble: 51 × 4
   state    number_of_german_spe…¹ number_of_german_spe…² number_of_german_spe…³
   <chr>    <chr>                  <chr>                  <chr>                 
 1 Alabama  426                    395                    711                   
 2 Alaska   331                    201                    131                   
 3 Arizona  636                    858                    136                   
 4 Arkansas -                      635                    557                   
 5 Califor… 440                    318                    854                   
 6 Colorado 251                    498                    768                   
 7 Connect… 187                    334                    586                   
 8 Delaware -                      998                    453                   
 9 Distric… 799                    745                    180                   
10 Florida  399                    924                    958                   
# ℹ 41 more rows
# ℹ abbreviated names: ¹​number_of_german_speakers_2017,
#   ²​number_of_german_speakers_2018, ³​number_of_german_speakers_2019
…
data_frame |>
  pivot_longer(cols = columns_to_use,
               names_to = "name_of_identifer_variable") 

data_frame |>
  pivot_longer(cols = columns_to_use,
               names_to = "name_of_identifer_variable",
               values_to = "name_of_value_variable")

pivot_longer()

german_speakers

# A tibble: 51 × 4
   state    number_of_german_spe…¹ number_of_german_spe…² number_of_german_spe…³
   <chr>    <chr>                  <chr>                  <chr>                 
 1 Alabama  426                    395                    711                   
 2 Alaska   331                    201                    131                   
 3 Arizona  636                    858                    136                   
 4 Arkansas -                      635                    557                   
 5 Califor… 440                    318                    854                   
 6 Colorado 251                    498                    768                   
 7 Connect… 187                    334                    586                   
 8 Delaware -                      998                    453                   
 9 Distric… 799                    745                    180                   
10 Florida  399                    924                    958                   
# ℹ 41 more rows
# ℹ abbreviated names: ¹​number_of_german_speakers_2017,
#   ²​number_of_german_speakers_2018, ³​number_of_german_speakers_2019

pivot_longer()

german_speakers |>
  pivot_longer(cols = c(number_of_german_speakers_2017,
                        number_of_german_speakers_2018,
                        number_of_german_speakers_2019))

# A tibble: 153 × 3
   state    name                           value
   <chr>    <chr>                          <chr>
 1 Alabama  number_of_german_speakers_2017 426  
 2 Alabama  number_of_german_speakers_2018 395  
 3 Alabama  number_of_german_speakers_2019 711  
 4 Alaska   number_of_german_speakers_2017 331  
 5 Alaska   number_of_german_speakers_2018 201  
 6 Alaska   number_of_german_speakers_2019 131  
 7 Arizona  number_of_german_speakers_2017 636  
 8 Arizona  number_of_german_speakers_2018 858  
 9 Arizona  number_of_german_speakers_2019 136  
10 Arkansas number_of_german_speakers_2017 -    
# ℹ 143 more rows

pivot_longer()

german_speakers |>
  pivot_longer(cols = -state)

# A tibble: 153 × 3
   state    name                           value
   <chr>    <chr>                          <chr>
 1 Alabama  number_of_german_speakers_2017 426  
 2 Alabama  number_of_german_speakers_2018 395  
 3 Alabama  number_of_german_speakers_2019 711  
 4 Alaska   number_of_german_speakers_2017 331  
 5 Alaska   number_of_german_speakers_2018 201  
 6 Alaska   number_of_german_speakers_2019 131  
 7 Arizona  number_of_german_speakers_2017 636  
 8 Arizona  number_of_german_speakers_2018 858  
 9 Arizona  number_of_german_speakers_2019 136  
10 Arkansas number_of_german_speakers_2017 -    
# ℹ 143 more rows

pivot_longer()

german_speakers |>
  pivot_longer(cols = -state,
               names_to = "year", 
               values_to = "number")

# A tibble: 153 × 3
   state    year                           number
   <chr>    <chr>                          <chr> 
 1 Alabama  number_of_german_speakers_2017 426   
 2 Alabama  number_of_german_speakers_2018 395   
 3 Alabama  number_of_german_speakers_2019 711   
 4 Alaska   number_of_german_speakers_2017 331   
 5 Alaska   number_of_german_speakers_2018 201   
 6 Alaska   number_of_german_speakers_2019 131   
 7 Arizona  number_of_german_speakers_2017 636   
 8 Arizona  number_of_german_speakers_2018 858   
 9 Arizona  number_of_german_speakers_2019 136   
10 Arkansas number_of_german_speakers_2017 -     
# ℹ 143 more rows
…
Your Turn, Continued

Use pivot_longer() to convert all of the race/ethnicity variables into one variable.

Within pivot_longer(), use the names_to argument to call that variable race_ethnicity.

Within pivot_longer(), use the values_to argument to call that variable number_of_students.

Tidy Data Rule #3: Every Cell is a Single Value

These are also just good data wrangling functions

Every Cell is a Single Value

# A tibble: 153 × 3
   state    year                           number
   <chr>    <chr>                          <chr> 
 1 Alabama  number_of_german_speakers_2017 426   
 2 Alabama  number_of_german_speakers_2018 395   
 3 Alabama  number_of_german_speakers_2019 711   
 4 Alaska   number_of_german_speakers_2017 331   
 5 Alaska   number_of_german_speakers_2018 201   
 6 Alaska   number_of_german_speakers_2019 131   
 7 Arizona  number_of_german_speakers_2017 636   
 8 Arizona  number_of_german_speakers_2018 858   
 9 Arizona  number_of_german_speakers_2019 136   
10 Arkansas number_of_german_speakers_2017 -     
# ℹ 143 more rows
…
Mention there are a whole bunch of other stringr functions

str_remove()

german_speakers |>
  pivot_longer(cols = -state,
               names_to = "year",
               values_to = "number") |>
  mutate(year = str_remove(year, "number_of_german_speakers_"))

# A tibble: 153 × 3
   state    year  number
   <chr>    <chr> <chr> 
 1 Alabama  2017  426   
 2 Alabama  2018  395   
 3 Alabama  2019  711   
 4 Alaska   2017  331   
 5 Alaska   2018  201   
 6 Alaska   2019  131   
 7 Arizona  2017  636   
 8 Arizona  2018  858   
 9 Arizona  2019  136   
10 Arkansas 2017  -     
# ℹ 143 more rows
…
recode()

german_speakers |>
  pivot_longer(cols = -state,
               names_to = "year",
               values_to = "number") |>
  mutate(year = recode(year,
                       "number_of_german_speakers_2017" = "2017", 
                       "number_of_german_speakers_2018" = "2018", 
                       "number_of_german_speakers_2019" = "2019"))

# A tibble: 153 × 3
   state    year  number
   <chr>    <chr> <chr> 
 1 Alabama  2017  426   
 2 Alabama  2018  395   
 3 Alabama  2019  711   
 4 Alaska   2017  331   
 5 Alaska   2018  201   
 6 Alaska   2019  131   
 7 Arizona  2017  636   
 8 Arizona  2018  858   
 9 Arizona  2019  136   
10 Arkansas 2017  -     
# ℹ 143 more rows
…
german_speakers |>
  pivot_longer(cols = -state,
               names_to = "year",
               values_to = "number") |>
  mutate(year = if_else(year == "number_of_german_speakers_2017", 
                        true = "2017", 
                        false = year)) |> 
  mutate(year = if_else(year == "number_of_german_speakers_2018", 
                        true = "2018", 
                        false = year)) |> 
  mutate(year = if_else(year == "number_of_german_speakers_2019", 
                        true = "2019", 
                        false = year)) 

# A tibble: 153 × 3
   state    year  number
   <chr>    <chr> <chr> 
 1 Alabama  2017  426   
 2 Alabama  2018  395   
 3 Alabama  2019  711   
 4 Alaska   2017  331   
 5 Alaska   2018  201   
 6 Alaska   2019  131   
 7 Arizona  2017  636   
 8 Arizona  2018  858   
 9 Arizona  2019  136   
10 Arkansas 2017  -     
# ℹ 143 more rows
…
case_when()

german_speakers |>
  pivot_longer(cols = -state,
               names_to = "year",
               values_to = "number") |>
  mutate(year = case_when(
    year == "number_of_german_speakers_2017" ~ "2017", 
    year == "number_of_german_speakers_2018" ~ "2018", 
    year == "number_of_german_speakers_2019" ~ "2019" 
  )) 

# A tibble: 153 × 3
   state    year  number
   <chr>    <chr> <chr> 
 1 Alabama  2017  426   
 2 Alabama  2018  395   
 3 Alabama  2019  711   
 4 Alaska   2017  331   
 5 Alaska   2018  201   
 6 Alaska   2019  131   
 7 Arizona  2017  636   
 8 Arizona  2018  858   
 9 Arizona  2019  136   
10 Arkansas 2017  -     
# ℹ 143 more rows
…
german_speakers |>
  pivot_longer(cols = -state,
               names_to = "year",
               values_to = "number") |>
  mutate(year = parse_number(year)) 

parse_number()

german_speakers |>
  pivot_longer(cols = -state,
               names_to = "year",
               values_to = "number") |>
  mutate(year = parse_number(year)) 

# A tibble: 153 × 3
   state     year number
   <chr>    <dbl> <chr> 
 1 Alabama   2017 426   
 2 Alabama   2018 395   
 3 Alabama   2019 711   
 4 Alaska    2017 331   
 5 Alaska    2018 201   
 6 Alaska    2019 131   
 7 Arizona   2017 636   
 8 Arizona   2018 858   
 9 Arizona   2019 136   
10 Arkansas  2017 -     
# ℹ 143 more rows
…
Every Row is an Observation

activities_survey

# A tibble: 134 × 2
   respondent_id activities                                                     
           <int> <chr>                                                          
 1             1 Slept, Eaten food, Cooked food, Gone to work                   
 2             2 Slept, Eaten food, Gone to work, Commuted for work, Relaxed wi…
 3             3 Slept, Eaten food, Cooked food                                 
 4             4 Slept, Eaten food, Cooked food, Relaxed with a hobby (TELL US …
 5             5 Slept, Eaten food, Cooked food, Gone to work, Relaxed with a h…
 6             6 Slept, Eaten food, Cooked food, Gone to work, Relaxed with a h…
 7             7 Slept, Eaten food, Cooked food, Gone to work, Relaxed with a h…
 8             8 Slept, Eaten food, Gone to work                                
 9             9 Slept, Eaten food, Gone to work, Commuted for work             
10            10 Slept, Eaten food, Gone to work, Commuted for work             
# ℹ 124 more rows
…
one row = one activity

separate_longer_delim()

activities_survey |> 
  separate_longer_delim(cols = activities,
                        delim = ", ")

separate_longer_delim()

activities_survey |> 
  separate_longer_delim(cols = activities,
                        delim = ", ")

# A tibble: 619 × 2
   respondent_id activities                                                     
           <int> <chr>                                                          
 1             1 Slept                                                          
 2             1 Eaten food                                                     
 3             1 Cooked food                                                    
 4             1 Gone to work                                                   
 5             2 Slept                                                          
 6             2 Eaten food                                                     
 7             2 Gone to work                                                   
 8             2 Commuted for work                                              
 9             2 Relaxed with a hobby (TELL US THE HOBBY BY TYPING IN THE OTHER…
10             2 Played mobile games                                            
# ℹ 609 more rows

Before We Couldn’t Easily Count Responses

# A tibble: 134 × 2
   respondent_id activities                                                     
           <int> <chr>                                                          
 1             1 Slept, Eaten food, Cooked food, Gone to work                   
 2             2 Slept, Eaten food, Gone to work, Commuted for work, Relaxed wi…
 3             3 Slept, Eaten food, Cooked food                                 
 4             4 Slept, Eaten food, Cooked food, Relaxed with a hobby (TELL US …
 5             5 Slept, Eaten food, Cooked food, Gone to work, Relaxed with a h…
 6             6 Slept, Eaten food, Cooked food, Gone to work, Relaxed with a h…
 7             7 Slept, Eaten food, Cooked food, Gone to work, Relaxed with a h…
 8             8 Slept, Eaten food, Gone to work                                
 9             9 Slept, Eaten food, Gone to work, Commuted for work             
10            10 Slept, Eaten food, Gone to work, Commuted for work             
# ℹ 124 more rows

Now We Can!

activities_survey |> 
  separate_longer_delim(cols = activities,
                        delim = ", ") |> 
  count(activities)

# A tibble: 80 × 2
   activities                                          n
   <chr>                                           <int>
 1 Amateur R                                           1
 2 Basketball                                          1
 3 Being lazy                                          1
 4 Birding!                                            1
 5 Coding                                              1
 6 Coding/programming - but is it really relaxing?     1
 7 Comic book reading                                  1
 8 Commuted for work                                  49
 9 Cooked food                                        72
10 Cycling                                             1
# ℹ 70 more rows
…
Then, write code to count the number of unique responses in the partyid variable.

You’ll need to use the separate_longer_delim() and count() functions to do this.

Changing Variable Types

Changing Variable Types

german_speakers |>
  pivot_longer(cols = -state,
               names_to = "year",
               values_to = "number") 

# A tibble: 153 × 3
   state    year                           number
   <chr>    <chr>                          <chr> 
 1 Alabama  number_of_german_speakers_2017 426   
 2 Alabama  number_of_german_speakers_2018 395   
 3 Alabama  number_of_german_speakers_2019 711   
 4 Alaska   number_of_german_speakers_2017 331   
 5 Alaska   number_of_german_speakers_2018 201   
 6 Alaska   number_of_german_speakers_2019 131   
 7 Arizona  number_of_german_speakers_2017 636   
 8 Arizona  number_of_german_speakers_2018 858   
 9 Arizona  number_of_german_speakers_2019 136   
10 Arkansas number_of_german_speakers_2017 -     
# ℹ 143 more rows
…
